<?xml version="1.0" encoding="UTF-8"?>
<svg width="113px" height="43px" viewBox="0 0 113 43" version="1.1" xmlns="http://www.w3.org/2000/svg" xmlns:xlink="http://www.w3.org/1999/xlink">
    <!-- Generator: Sketch 51.2 (57519) - http://www.bohemiancoding.com/sketch -->
    <title>Group 3</title>
    <desc>Created with Sketch.</desc>
    <defs></defs>
    <g id="Blink聊天室" stroke="none" stroke-width="1" fill="none" fill-rule="evenodd">
        <g id="登入頁" transform="translate(-452.000000, -154.000000)" fill="#1B1D2D">
            <g id="Group-3" transform="translate(452.000000, 154.000000)">
                <circle id="Oval-2" cx="21.5" cy="21.5" r="21.5"></circle>
                <circle id="Oval-2" cx="91.5" cy="21.5" r="21.5"></circle>
            </g>
        </g>
    </g>
</svg>